Example for EMLN analysis
…
## # A tibble: 6 × 7
##   layer_id latitude location                                         longitude name            year layer_name
##      <int>    <dbl> <chr>                                                <dbl> <chr>          <int> <chr>     
## 1        1    -32.4 Villavicencio Nature Reserve, Mendoza, Argentina     -69.1 all_sites_2006  2006 layer_1   
## 2        2    -32.4 Villavicencio Nature Reserve, Mendoza, Argentina     -69.1 all_sites_2007  2007 layer_2   
## 3        3    -32.4 Villavicencio Nature Reserve, Mendoza, Argentina     -69.1 all_sites_2008  2008 layer_3   
## 4        4    -32.4 Villavicencio Nature Reserve, Mendoza, Argentina     -69.1 all_sites_209   2009 layer_4   
## 5        5    -32.4 Villavicencio Nature Reserve, Mendoza, Argentina     -69.1 all_sites_2010  2010 layer_5   
## 6        6    -32.4 Villavicencio Nature Reserve, Mendoza, Argentina     -69.1 all_sites_2011  2011 layer_6

emln_65$nodes

## # A tibble: 180 × 15
##    node_id node_name type  corolla_length corolla_aperture height_mean flower_abundance body_thickness body_length proboscis_length proboscis_width body_width taxa_verified
##      <int> <chr>     <chr>          <dbl>            <dbl>       <dbl>            <int>          <dbl>       <dbl>            <dbl>           <dbl>      <dbl> <chr>        
##  1       1 aca.ser   plant           3.15            0.912       0.154            42118             NA          NA               NA              NA         NA TRUE         
##  2       2 alo.gra   plant           5.01            1.02        0.525             5944             NA          NA               NA              NA         NA FALSE        
##  3       3 arg.sub   plant          35.0            28.8         0.514                0             NA          NA               NA              NA         NA TRUE         
##  4       4 arj.lon   plant          14.5             1.67        0.222             3252             NA          NA               NA              NA         NA TRUE         
##  5       5 bou.spi   plant          10.2             1.48        1.77              1610             NA          NA               NA              NA         NA TRUE         
##  6       6 bre.mic   plant           4.17            2           0.32                 0             NA          NA               NA              NA         NA TRUE         
##  7       7 bud.men   plant           5.46            1.19        0.49               301             NA          NA               NA              NA         NA TRUE         
##  8       8 cap.ata   plant           0.25            1.69        1.61                59             NA          NA               NA              NA         NA TRUE         
##  9       9 cen.sol   plant          17.5             1.5         0.122                3             NA          NA               NA              NA         NA FALSE        
## 10      10 cer.arv   plant           5.27           13.3         0.277              480             NA          NA               NA              NA         NA TRUE         
## # ℹ 170 more rows
## # ℹ 2 more variables: verification_level <chr>, species_name <chr>
…
Let’s take a look at the modules.

# Number of modules:
emln_65_modularity$m

## [1] 38

emln_65_modularity$modules %>% 
  select(node_id, layer_id, node_name, type, module)

## # A tibble: 642 × 5
##    node_id layer_id node_name type  module
##      <int>    <int> <chr>     <chr>  <int>
##  1       1        1 aca.ser   plant      1
##  2       1        2 aca.ser   plant     13
##  3       1        3 aca.ser   plant     16
##  4       1        4 aca.ser   plant      4
##  5       1        5 aca.ser   plant      4
##  6       1        6 aca.ser   plant     36
##  7       2        1 alo.gra   plant      1
##  8       2        3 alo.gra   plant      7
##  9       2        4 alo.gra   plant      4
## 10       2        5 alo.gra   plant     34
## # ℹ 632 more rows
…
