Handling monolayer network data
…
To demonstrate real data we use the incidence matrix olesen2002flores
included in the bipartite package.

# create a monolayer object from a bipartite matrix
monolayer_bipartite <- matrix_to_list_bipartite(x = olesen2002flores, group_names = c('Pollinator', 'Plant'))

# What is included in the monolayer class object
names(monolayer_bipartite)

## [1] "mode"          "directed"      "nodes"         "mat"           "edge_list"     "igraph_object"

# The nodes in the network
monolayer_bipartite$nodes

## # A tibble: 22 × 3
##    node_id node_group node_name           
##      <int> <chr>      <chr>               
##  1       1 Pollinator Halictus.sp.        
##  2       2 Pollinator Sepsis.thoracica    
##  3       3 Pollinator Agrotis.ipsilon     
##  4       4 Pollinator Bombus.ruderatus    
##  5       5 Pollinator Colias.crocea       
##  6       6 Pollinator Musca.domestica     
##  7       7 Pollinator Apis.mellifera      
##  8       8 Pollinator Lucilia.sericata    
##  9       9 Pollinator Lasius.niger        
## 10      10 Pollinator Anothomyia.pluvialis
## # ℹ 12 more rows

# The link (edge) list
monolayer_bipartite$edge_list

## # A tibble: 30 × 3
##    from             to                    weight
##    <chr>            <chr>                  <dbl>
##  1 Halictus.sp.     Azorina:vidalii           98
##  2 Halictus.sp.     Solidago:sempervivens    141
##  3 Halictus.sp.     Daucus:carota             11
##  4 Halictus.sp.     Silene:vulgaris            7
##  5 Halictus.sp.     Chamomilla:suaveolens     21
##  6 Halictus.sp.     Reseda:luteola            11
##  7 Sepsis.thoracica Azorina:vidalii           51
##  8 Sepsis.thoracica Crithmum:maritimum        87
##  9 Sepsis.thoracica Beta:vulgaris              8
## 10 Sepsis.thoracica Silene:vulgaris           30
## # ℹ 20 more rows
…
