Handling multilayer network data
…
# Re-create the multilayer object with interlayer links
multilayer_sierras_interlayer <- create_multilayer_network(list_of_layers = Sierras_matrices, bipartite = T, directed = F, layer_attributes = layer_attrib, interlayer_links = Sierras_interlayer)

# See the interlayer links
multilayer_sierras_interlayer$extended %>% filter(layer_from!=layer_to)

## # A tibble: 2,657 × 5
##    layer_from node_from         layer_to   node_to           weight
##    <chr>      <chr>             <chr>      <chr>              <dbl>
##  1 La Brava   Achyra similalis  Vigilancia Achyra similalis  0.0652
##  2 Amarante   Agraulis vanillae Barrosa    Agraulis vanillae 0.166 
##  3 Amarante   Agraulis vanillae Difuntito  Agraulis vanillae 0.183 
##  4 Amarante   Agraulis vanillae Difuntos   Agraulis vanillae 0.871 
##  5 Amarante   Agraulis vanillae La Brava   Agraulis vanillae 0.617 
##  6 Amarante   Agraulis vanillae Vigilancia Agraulis vanillae 0.552 
##  7 Barrosa    Agraulis vanillae Difuntito  Agraulis vanillae 0.0173
##  8 Barrosa    Agraulis vanillae Difuntos   Agraulis vanillae 0.705 
##  9 Barrosa    Agraulis vanillae La Brava   Agraulis vanillae 0.452 
## 10 Barrosa    Agraulis vanillae Vigilancia Agraulis vanillae 0.387 
## # ℹ 2,647 more rows

multilayer_sierras_interlayer$extended_ids %>% filter(layer_from!=layer_to)

## # A tibble: 2,657 × 5
##    layer_from node_from layer_to node_to weight
##         <int>     <int>    <int>   <int>  <dbl>
##  1          7         2       11       2 0.0652
##  2          1         6        2       6 0.166 
##  3          1         6        4       6 0.183 
##  4          1         6        5       6 0.871 
##  5          1         6        7       6 0.617 
##  6          1         6       11       6 0.552 
##  7          2         6        4       6 0.0173
##  8          2         6        5       6 0.705 
##  9          2         6        7       6 0.452 
## 10          2         6       11       6 0.387 
## # ℹ 2,647 more rows
…
